module qx

go 1.13

require (
	github.com/golang/snappy v0.0.1
	github.com/lucas-clemente/quic-go v0.20.0
	github.com/mholt/certmagic v0.8.3
	github.com/miekg/dns v1.1.25 // indirect
	github.com/urfave/cli v1.22.2
	github.com/vmihailenco/msgpack v4.0.4+incompatible
	google.golang.org/appengine v1.6.5 // indirect
	gopkg.in/square/go-jose.v2 v2.4.0 // indirect
)
